{
  "project_info": {
    "project_number": "508270869153",
    "firebase_url": "https://parking-finder-e630b.firebaseio.com",
    "project_id": "parking-finder-e630b",
    "storage_bucket": "parking-finder-e630b.appspot.com"
  },
  "client": [
    {
      "client_info": {
        "mobilesdk_app_id": "1:508270869153:android:e4d6e42383084dfe",
        "android_client_info": {
          "package_name": "com.fsail.jav1.shericesutcliffe_parkingfinder"
        }
      },
      "oauth_client": [
        {
          "client_id": "508270869153-p1fb9i89hch1hu8ra2kbu4ro3pp8lr4q.apps.googleusercontent.com",
          "client_type": 1,
          "android_info": {
            "package_name": "com.fsail.jav1.shericesutcliffe_parkingfinder",
            "certificate_hash": "825d1ed358181f4be09e240351572e0ebe6a9eb7"
          }
        },
        {
          "client_id": "508270869153-9uht3g4m58utjqkg66ftu1rlvc9jtan5.apps.googleusercontent.com",
          "client_type": 3
        }
      ],
      "api_key": [
        {
          "current_key": "AIzaSyDsxlyVS3Gse9f8CI7aPPvoVUnYXTyZYU8"
        }
      ],
      "services": {
        "analytics_service": {
          "status": 1
        },
        "appinvite_service": {
          "status": 2,
          "other_platform_oauth_client": [
            {
              "client_id": "508270869153-9uht3g4m58utjqkg66ftu1rlvc9jtan5.apps.googleusercontent.com",
              "client_type": 3
            }
          ]
        },
        "ads_service": {
          "status": 2
        }
      }
    }
  ],
  "configuration_version": "1"
}